;-----
; Rename this file to emmc.dat
;-----
;MANUFACTURER_NAME,PART_NAME,BGA_PACKAGE,BLOCK_MAP,MANUFACTURER_ID,PRODUCT_NAME,PRODUCT_TYPE,VCC,REV
;-----
eMMC,eMMC_General_02GB @FBGA153,BGA153,M200S0L100000T800X8,FFh,FFh,20,300,30
eMMC,eMMC_General_04GB @FBGA162,BGA162,M200S0L100000T1000X8,FFh,FFh,20,300,30
eMMC,eMMC_General_04GB @FBGA169,BGA169,M200S0L100000T1000X8,FFh,FFh,20,300,30 
eMMC,eMMC_General_08GB @FBGA162,BGA162,M200S0L100000T2000X8,FFh,FFh,20,300,30
eMMC,eMMC_General_08GB @FBGA169,BGA169,M200S0L100000T2000X8,FFh,FFh,20,300,30
eMMC,eMMC_General_16GB @FBGA162,BGA162,M200S0L100000T4000X8,FFh,FFh,20,300,30
eMMC,eMMC_General_16GB @FBGA169,BGA169,M200S0L100000T3E80X8,FFh,FFh,20,300,30
eMMC,eMMC_General_32GB @FBGA162,BGA162,M200S0L100000T8000X8,FFh,FFh,20,300,40
eMMC,eMMC_General_32GB @FBGA169,BGA169,M200S0L100000T7D00X8,FFh,FFh,20,300,40
eMMC,eMMC_General_64GB @FBGA162,BGA162,M200S0L100000T10000X8,FFh,FFh,20,300,40